Take-home Exercise 1: Survey Analysis with Data Visualisation – ISSS608-VAA
…
                  "1" = "Tuyen Quang", "2" = "Quang Ninh", "3" = "Ha Giang",
                  "4" = "Yen Bai", "5" = "Bac Giang"),
    FEDU_label = recode(as.character(FEDU),
                        "0" = "No formal", "1" = "Primary", "2" = "Secondary",
                        "3" = "Higher", .default = NA_character_),
    FCRA = recode(as.character(FCRA),
                  "1" = "Low", "2" = "Medium", .default = NA_character_),
    FCRA = fct_relevel(factor(FCRA), "Low", "Medium"),
    CRAC = factor(recode(as.character(CRAC),
                        "1" = "Kinh", "2" = "Ethnic minority", .default = NA_character_),
                  levels = c("Kinh", "Ethnic minority"))
  )
survey

# A tibble: 724 × 31
   CPRO  CGEN  CRAC  CJOB  CQUI   TEIN  TAIN  TSII  TOIN FEDU  FVTP  FCRA  FTAP 
   <chr> <fct> <fct> <chr> <chr> <dbl> <dbl> <dbl> <dbl> <chr> <chr> <fct> <chr>
 1 Tuye… Male  Ethn… 1     3        37    25     7     5 1     1     Low   1    
 2 Tuye… Male  Ethn… 1     5        25    22     0     3 0     1     Medi… 1    
 3 Tuye… Fema… Ethn… 3     3        33    25     0     8 1     1     Low   2    
 4 Tuye… Male  Ethn… 1     3        35    30     5     0 1     1     Low   <NA> 
 5 Tuye… Fema… Ethn… 1     3        36    28     0     8 0     1     Low   2    
 6 Tuye… Fema… Ethn… <NA>  4        21    17     0     4 0     1     Low   2    
 7 Tuye… Male  Ethn… 3     1        35    25     0    10 3     2     Low   2    
 8 Tuye… Male  Ethn… 1     3        36    28     0     8 0     1     Low   2    
 9 Tuye… Male  Ethn… 3     3        38    26    12     0 2     2     Low   2    
10 Tuye… Male  Ethn… 1     3        30    22     2     6 0     1     Low   2    
# ℹ 714 more rows
# ℹ 18 more variables: LHO1 <dbl>, LHO2 <dbl>, LHO3 <dbl>, LHO4 <dbl>,
#   LCRE <dbl>, LSAV <dbl>, LWDA <dbl>, PPO1 <dbl>, PPO2 <dbl>, PPO3 <dbl>,
#   PPO4 <dbl>, PPO5 <dbl>, ARO1 <dbl>, ARO2 <dbl>, ARO3 <dbl>, ARO4 <chr>,
#   ARO5 <dbl>, FEDU_label <chr>
…
